{
    "avanti_productlabel": {
        "column": {
            "label_id": true,
            "label_name": true,
            "label_position": true,
            "label_active": true,
            "label_image": true,
            "category_ids": true,
            "created_at": true,
            "updated_at": true
        },
        "constraint": {
            "PRIMARY": true
        }
    }
}